{
  "id": "3834310",
  "name": "bottle",
  "font_family": "iconfont",
  "css_prefix_text": "icon-",
  "description": "",
  "glyphs": [
    {
      "icon_id": "5030",
      "name": "购物车满",
      "font_class": "gouwucheman",
      "unicode": "e600",
      "unicode_decimal": 58880
    },
    {
      "icon_id": "1048891",
      "name": "关闭",
      "font_class": "icon_close",
      "unicode": "e62c",
      "unicode_decimal": 58924
    },
    {
      "icon_id": "2939198",
      "name": "加减组件 加号",
      "font_class": "jiajianzujianjiahao",
      "unicode": "e64d",
      "unicode_decimal": 58957
    },
    {
      "icon_id": "12911864",
      "name": "对勾",
      "font_class": "duigou",
      "unicode": "e606",
      "unicode_decimal": 58886
    }
  ]
}
