{
  "id": "",
  "name": "",
  "font_family": "iconfont",
  "css_prefix_text": "icon-",
  "description": "",
  "glyphs": [
    {
      "icon_id": "765360",
      "name": "设置",
      "font_class": "shouye",
      "unicode": "e61c",
      "unicode_decimal": 58908
    },
    {
      "icon_id": "1115839",
      "name": "统计",
      "font_class": "tongji",
      "unicode": "e607",
      "unicode_decimal": 58887
    }
  ]
}
